Metody przetwarzania danych meteorologicznych w języku programowania R
…
Czy uzyskany zbiór danych zawiera informacje dla temperatury średniej rocznej w Poznaniu? Nie! W ramce danych mamy pomiary z kilku stacji meteorologicznych. Z tego względu bez względu czy pomiar był w Poznaniu czy Łodzi, czy w Warszawie wszystkie pomiary z danego roku zostały wrzucone do tej samej grupy (agregaty). W takim przypadku konieczne jest albo wcześniejsze odfiltrowania zbioru danych, albo rozszerzenie argumentów funkcji group_by(), tak aby wykonała obliczenia dla większej liczby stacji, np.:

dane %>% group_by(nazwa, yy) %>% summarise( mean(t2m)  )

## # A tibble: 48 x 3
## # Groups:   nazwa [?]
##    nazwa    yy `mean(t2m)`
##    <chr> <int>       <dbl>
##  1 LOD    2000        9.60
##  2 LOD    2001        8.13
##  3 LOD    2002        9.10
##  4 LOD    2003        8.53
##  5 LOD    2004        8.53
##  6 LOD    2005        8.64
##  7 LOD    2006        8.87
##  8 LOD    2007        9.35
##  9 LOD    2008        9.58
## 10 LOD    2009        8.63
## # ... with 38 more rows

Zadanie:

Oblicz średnie miesięczne temperatury powietrza w wieloleciu 2000-2015 w Poznaniu (czyli np. I:-0.2*C, II:-2.1, III:+2.6, itd.)

Oblicz maksymalne temperatury jakie wystąpiły w każdym z miesięcy w wieloleciu 2000-2015 w Poznaniu (czyli np. 2000-I: +2.8*C, 2000-II:+6.1, 2000-III:+12.6, itd.)

Oblicz sumę temperatur w każdym dniu kalendarzowym w Poznaniu (analogiczną procedurę można by było zastosować np. do opadów atmosferycznych)

Wskazówka: Nazwy kolumn w funkcji summarise() można dowolnie definiować. Przykładowo, jeśli chcielibyśmy obliczyć jednocześnie temperaturę maksymalną i minimalną dobową w Poznaniu latem 2015 r., wówczas kolumny wynikowe możemy odpowiednio nazwać: `

dane %>% filter(., nazwa=="POZ", yy==2015, mm %in% c(6:8)) %>%  group_by(yy,mm,dd) %>% summarise( temp_min=min(t2m, na.rm=T) , temp_max=max(t2m, na.rm=T) )

## # A tibble: 92 x 5
## # Groups:   yy, mm [?]
##       yy    mm    dd temp_min temp_max
##    <int> <int> <int>    <dbl>    <dbl>
##  1  2015     6     1     12.5     22.6
##  2  2015     6     2     10.7     24.9
##  3  2015     6     3     12.1     28.4
##  4  2015     6     4      9.2     21.7
##  5  2015     6     5      9.7     26.1
##  6  2015     6     6     15.2     31.6
##  7  2015     6     7     11.8     18.2
##  8  2015     6     8      9.2     20.5
##  9  2015     6     9      8.2     14.8
## 10  2015     6    10      8.6     20.7
## # ... with 82 more rows
…
